[
    {
        "vendor": "1",
        "title": "Apple iPhone 11 64GB",
        "price": "22 999",
        "image": "./itemImages/152728355.jpeg",
        "color": "Red"
    },
    {
        "vendor": "2",
        "title": "Samsung Galaxy A52 4/128GB",
        "price": "12 999",
        "image": "./itemImages/166287896.jpeg",
        "color": "White"
    },
    {
        "vendor": "3",
        "title": "Huawei Nova 8i 6/128GB",
        "price": "8 299",
        "image": "./itemImages/230224784.jpeg",
        "color": "Moonlight Silver"
    },
    {
        "vendor": "4",
        "title": "Apple iPhone 12 64GB",
        "price": "26 999",
        "image": "./itemImages/30872889.jpeg",
        "color": "Black"
    },
    {
        "vendor": "5",
        "title": "Samsung Galaxy A32 4/64GB",
        "price": "9 299",
        "image": "./itemImages/165913388.jpeg",
        "color": "Blue"
    },
    {
        "vendor": "6",
        "title": "Xiaomi Redmi 9A 2/32GB",
        "price": "4 399",
        "image": "./itemImages/138170557.jpeg",
        "color": "Granite Gray"
    },
    {
        "vendor": "7",
        "title": "Apple iPhone 13 512GB",
        "price": "42 999",
        "image": "./itemImages/221205342.jpeg",
        "color": "Pink"
    },
    {
        "vendor": "8",
        "title": "ZTE Blade V2020 Smart 4/64GB",
        "price": "4 899",
        "image": "./itemImages/33911187.jpeg",
        "color": "Grey"
    },
    {
        "vendor": "9",
        "title": "Apple iPhone 13 Pro Max 256GB",
        "price": "50 999",
        "image": "./itemImages/221300272.jpeg",
        "color": "Silver"
    },
    {
        "vendor": "10",
        "title": "Samsung Galaxy S21 FE 6/128GB",
        "price": "19 999",
        "image": "./itemImages/245951562.jpeg",
        "color": "Lavender"
    },
    {
        "vendor": "11",
        "title": "ZTE Blade A3 2020 1/32GB",
        "price": "2 599",
        "image": "./itemImages/23843224.jpeg",
        "color": "Blue"
    },
    {
        "vendor": "12",
        "title": "OnePlus Nord 8/128GB",
        "price": "13 999",
        "image": "./itemImages/194850847.jpeg",
        "color": "Blue Marble"
    }
]